<svg width="33" height="32" viewBox="0 0 33 32" fill="none" xmlns="http://www.w3.org/2000/svg">
<path d="M27.6211 23V5H9.62109" stroke="#62FFB8" stroke-width="1.5" stroke-linecap="round" stroke-linejoin="round"/>
<path d="M23.6211 9H5.62109V27H23.6211V9Z" stroke="#62FFB8" stroke-width="1.5" stroke-linecap="round" stroke-linejoin="round"/>
</svg>
