<svg width="20" height="20" viewBox="0 0 20 20" fill="none" xmlns="http://www.w3.org/2000/svg">
<path d="M10 20C15.5228 20 20 15.5228 20 10C20 4.47715 15.5228 0 10 0C4.47715 0 0 4.47715 0 10C0 15.5228 4.47715 20 10 20Z" fill="url(#paint0_linear_642_577)"/>
<path d="M5.26296 12.8952C5.34716 12.811 5.46394 12.7621 5.58887 12.7621H16.7866C16.9903 12.7621 17.0935 13.0092 16.9495 13.1532L14.7388 15.3639C14.6546 15.4481 14.5378 15.497 14.4129 15.497H3.21245C3.00875 15.497 2.90555 15.2499 3.04949 15.1059L5.26296 12.8952Z" fill="white"/>
<path d="M5.26296 4.63613C5.34987 4.55194 5.46666 4.50305 5.58887 4.50305H16.7866C16.9903 4.50305 17.0935 4.7502 16.9495 4.89414L14.7388 7.1049C14.6546 7.18909 14.5378 7.23798 14.4129 7.23798H3.21245C3.00875 7.23798 2.90555 6.99083 3.04949 6.84689L5.26296 4.63613Z" fill="white"/>
<path d="M14.7361 8.73989C14.6519 8.6557 14.5351 8.60681 14.4102 8.60681H3.21245C3.00875 8.60681 2.90555 8.85396 3.04949 8.9979L5.26025 11.2087C5.34444 11.2929 5.46122 11.3417 5.58616 11.3417H16.7839C16.9876 11.3417 17.0908 11.0946 16.9468 10.9506L14.7361 8.73989Z" fill="white"/>
<defs>
<linearGradient id="paint0_linear_642_577" x1="18.7656" y1="1.06187" x2="2.50856" y2="17.6398" gradientUnits="userSpaceOnUse">
<stop stop-color="#00FFA3"/>
<stop offset="1" stop-color="#DC1FFF"/>
</linearGradient>
</defs>
</svg>
