<svg width="19" height="15" viewBox="0 0 19 15" fill="none" xmlns="http://www.w3.org/2000/svg">
<path d="M18.1477 0.322754C18.0826 0.132398 18.0054 0.0809503 17.8836 0.0346473C17.6178 -0.0665332 17.1685 0.086095 17.1685 0.086095C17.1685 0.086095 1.23515 5.81222 0.326243 6.44675C0.130741 6.58394 0.0638593 6.66283 0.0312758 6.75543C-0.126497 7.20646 0.363971 7.40539 0.363971 7.40539L4.47121 8.74303C4.47121 8.74303 4.62384 8.76532 4.67872 8.73102C5.61335 8.14109 14.0782 2.79567 14.5653 2.61561C14.6424 2.59331 14.699 2.61904 14.6836 2.6722C14.4881 3.35817 7.1362 9.89374 7.1362 9.89374C7.1362 9.89374 7.10876 9.92804 7.0899 9.9692L7.07961 9.96405L6.69718 14.037C6.69718 14.037 6.53598 15.2855 7.78444 14.037C8.6642 13.1572 9.51652 12.4198 9.94353 12.0614C11.3549 13.0355 12.8761 14.1142 13.5312 14.6784C13.8604 14.9613 14.1365 15.0076 14.3629 14.9991C14.9854 14.9751 15.1586 14.2925 15.1586 14.2925C15.1586 14.2925 18.062 2.60703 18.1597 1.04131C18.17 0.888679 18.182 0.790929 18.1837 0.684603C18.1855 0.538835 18.1717 0.393066 18.1477 0.322754Z" fill="#62FFB8"/>
</svg>
